Tacit Scraping
…
If it was not clear we are collecting info about dog breeds. Now we can run these functions to collect the data.

'http://dogtime.com/dog-breeds/groups/' %>% 
  url_2_links %>% 
  grep('breeds/', ., value = T) %>% 
  grep('dog-breeds/groups/', ., value = T, invert = T) -> breeds

So that essentially did some web crawling and scraping, and filtered out the items for which we do not have any interest. Now we can use the map function to turn each URL into data, or a tibble.

breeds %>% map(url_2_data) -> df

df[[1]]

## # A tibble: 31 x 3
##                                tag score           type
##                              <chr> <chr>          <chr>
##  1                    Adaptability       Companion Dogs
##  2 Adapts Well to Apartment Living     5 Companion Dogs
##  3          Good For Novice Owners     4 Companion Dogs
##  4               Sensitivity Level     3 Companion Dogs
##  5           Tolerates Being Alone     1 Companion Dogs
##  6          Tolerates Cold Weather     3 Companion Dogs
##  7           Tolerates Hot Weather     3 Companion Dogs
##  8         All Around Friendliness       Companion Dogs
##  9        Affectionate with Family     5 Companion Dogs
## 10    Incredibly Kid Friendly Dogs     1 Companion Dogs
## # ... with 21 more rows
…
